{
    "KPlugin": {
        "Category": "Appearance",
        "Description": "Animates display transformations",
        "Description[ar]": "يحرك تحورات العرض",
        "Description[az]": "Ekranın dəyişməsi animasiyası",
        "Description[be]": "Анімацыя трансфармавання дысплэя",
        "Description[bg]": "Анимира трансформациите на дисплея",
        "Description[ca@valencia]": "Anima les transformacions de pantalla",
        "Description[ca]": "Anima les transformacions de pantalla",
        "Description[cs]": "Animuje transformace zobrazení",
        "Description[de]": "Animiert Anzeigeänderungen",
        "Description[en_GB]": "Animates display transformations",
        "Description[es]": "Anima las transformaciones de la pantalla",
        "Description[et]": "Kuvateisenduste animeerimine",
        "Description[eu]": "Pantaila aldaketak animatzen ditu",
        "Description[fi]": "Animoi näyttömuunnokset",
        "Description[fr]": "Anime les transformations d'affichage",
        "Description[hu]": "Animálja a megjelenítési transzformációkat",
        "Description[ia]": "Anima transformationes de monstrator ",
        "Description[id]": "Animasikan transformasi tampilan",
        "Description[it]": "Anima le trasformazioni dello schermo",
        "Description[ja]": "ディスプレイの変形をアニメートします",
        "Description[ka]": "ეკრანის გარდაქმნების ანიმაცია",
        "Description[ko]": "디스플레이 변형 애니메이션",
        "Description[nl]": "Animeert transformaties op scherm",
        "Description[nn]": "Animer utsjånadstransformeringar",
        "Description[pl]": "Animuje przekształcenia wyświetlacza",
        "Description[pt]": "Anima as transformações do ecrã",
        "Description[pt_BR]": "Anima transformações de visualização",
        "Description[ro]": "Animează transformările afișajului",
        "Description[ru]": "Анимация преобразований рабочего стола",
        "Description[sk]": "Animuje zobrazenie transformácií",
        "Description[sl]": "Animiraj preoblikovanja zaslona",
        "Description[sv]": "Animerar skärmtransformeringar",
        "Description[ta]": "காட்சிக்கருவி மாற்றங்களை அசைவூட்டும்",
        "Description[tr]": "Görüntü dönüşümlerini canlandırır",
        "Description[uk]": "Анімація перетворень показу",
        "Description[vi]": "Tạo hiệu ứng động cho các biến đổi hiển thị",
        "Description[x-test]": "xxAnimates display transformationsxx",
        "Description[zh_CN]": "动态显示变形",
        "Description[zh_TW]": "為顯示設定變更使用動畫效果",
        "EnabledByDefault": true,
        "License": "GPL",
        "Name": "Transform",
        "Name[ar]": "التّحويل",
        "Name[az]": "Dönüşüm",
        "Name[be]": "Трансфармаваць",
        "Name[bg]": "Трансформиране",
        "Name[ca@valencia]": "Transforma",
        "Name[ca]": "Transforma",
        "Name[cs]": "Transformovat",
        "Name[de]": "Transformieren",
        "Name[en_GB]": "Transform",
        "Name[es]": "Transformar",
        "Name[et]": "Teisendamine",
        "Name[eu]": "Eraldatu",
        "Name[fi]": "Muunnos",
        "Name[fr]": "Transformer",
        "Name[hu]": "Átalakítás",
        "Name[ia]": "Transforma",
        "Name[id]": "Transform",
        "Name[it]": "Trasforma",
        "Name[ja]": "変形",
        "Name[ka]": "ტრასფორმირება",
        "Name[ko]": "변형",
        "Name[nl]": "Transformeren",
        "Name[nn]": "Transformer",
        "Name[pl]": "Przekształcenie",
        "Name[pt]": "Transformar",
        "Name[pt_BR]": "Transformar",
        "Name[ro]": "Transformare",
        "Name[ru]": "Преобразование",
        "Name[sk]": "Transformovať",
        "Name[sl]": "Preoblikuj",
        "Name[sv]": "Transformera",
        "Name[ta]": "உருமாற்றம்",
        "Name[tr]": "Dönüştür",
        "Name[uk]": "Перетворення",
        "Name[vi]": "Biến đổi",
        "Name[x-test]": "xxTransformxx",
        "Name[zh_CN]": "变形",
        "Name[zh_TW]": "顯示設定變更"
    },
    "org.kde.kwin.effect": {
        "internal": true
    }
}
