{
    "KPlugin": {
        "Category": "Window Management",
        "Description": "Zoom out so all desktops are displayed side-by-side in a grid",
        "Description[ar]": "بعّد لتُعرَض كلّ أسطح المكتب واحدة بجانب الأخرى في شبكة",
        "Description[az]": "Bütün İş Masaların bir ekranda yan yana göstərmək",
        "Description[be]": "Маштаб памяншаецца, і ўсе працоўныя сталы паказваюцца побач адзін з адным у сетцы",
        "Description[bg]": "Намаляване на мащаба, докато всички работни плотове се представят като плочки един до друг",
        "Description[ca@valencia]": "Reduïx tots els escriptoris per a visualitzar-los un al costat de l'altre en una quadrícula",
        "Description[ca]": "Redueix tots els escriptoris per a visualitzar-los un al costat de l'altre en una quadrícula",
        "Description[cs]": "Oddálí plochy a zobrazí je v mřížce",
        "Description[de]": "Verkleinert die Arbeitsflächen, sodass sie in einem Raster nebeneinander zu sehen sind",
        "Description[en_GB]": "Zoom out so all desktops are displayed side-by-side in a grid",
        "Description[es]": "Reduce la ampliación para que todos los escritorios se muestren uno al lado del otro en una cuadrícula",
        "Description[et]": "Vähendamine, et kõik töölauad oleksid üksteise kõrval võrgustikus näha",
        "Description[eu]": "Zooma urrundu mahaigain guztiak sareta batean bata bestearen ondoan ager daitezen",
        "Description[fi]": "Loitontaa työpöytiä niin, että ne näytetään rinnakkain ruudukkona",
        "Description[fr]": "Faire un zoom arrière de manière à afficher tous les bureaux côte à côte dans une grille",
        "Description[hu]": "Kinagyítja az asztalt oly módon, hogy a virtuális asztalok rácsban elrendezve jelennek meg",
        "Description[ia]": "Face zoom retro assi que omne scriptorios es monstrate flanco a flanco in un grillia",
        "Description[id]": "Zoom keluar sehingga semua desktop ditampilkan sisi demi sisi di dalam kisi",
        "Description[it]": "Arretra per mostrare tutti i desktop virtuali affiancati in una griglia",
        "Description[ja]": "すべてのデスクトップがグリッド上に並んで表示されるまでズームアウトします",
        "Description[ko]": "모든 바탕 화면을 한 화면에 볼 수 있도록 격자형으로 축소합니다",
        "Description[nl]": "Verkleint alle bureaubladen zodat ze zij-aan-zij in een raster getoond kunnen worden",
        "Description[nn]": "Forminsk skjermflata slik at alle skriveborda vert viste side om side",
        "Description[pl]": "Pomniejsza do chwili, aż wszystkie pulpity będą widoczne obok siebie na siatce",
        "Description[pt]": "Reduz o ecrã de forma a mostrar todos os ecrãs lado-a-lado numa grelha",
        "Description[pt_BR]": "Reduz para que todas as áreas de trabalho sejam mostradas lado a lado em uma grade",
        "Description[ro]": "Îndepărtează astfel încât toate birourile sunt afișate alăturat într-o grilă",
        "Description[ru]": "Просмотр всех рабочих столов на одном экране",
        "Description[sk]": "Oddiali všetky plochy a zobrazí ich vedľa seba v mriežke",
        "Description[sl]": "Oddalji pogled tako, da so vsa namizja prikazana drugo ob drugem v mreži",
        "Description[sv]": "Zooma ut så att alla skrivbord visas sida vid sida i ett rutnät",
        "Description[ta]": "அனைத்து பணிமேடைகளை வரிசைகளிலும் நெடுவரிசைகளிலும் காட்டும்",
        "Description[tr]": "Uzaklaştır, böylece tüm masaüstleri bir ızgarada yan yana görüntülenirler",
        "Description[uk]": "Зменшення стільниць так, щоб всі стільниці було показано поруч у форматі таблиці",
        "Description[vi]": "Thu nhỏ để tất cả các bàn làm việc được hiển thị cạnh nhau trong một lưới",
        "Description[x-test]": "xxZoom out so all desktops are displayed side-by-side in a gridxx",
        "Description[zh_CN]": "所有虚拟桌面缩小后显示在一套网格中",
        "Description[zh_TW]": "縮小顯示讓所有桌面都同時顯示在格線內",
        "EnabledByDefault": true,
        "License": "GPL",
        "Name": "Desktop Grid",
        "Name[ar]": "شبكة سطح المكتب",
        "Name[az]": "İş masası toru",
        "Name[be]": "Сетка для працоўных сталоў",
        "Name[bg]": "Плочки",
        "Name[ca@valencia]": "Quadrícula de l'escriptori",
        "Name[ca]": "Quadrícula de l'escriptori",
        "Name[cs]": "Mřížka plochy",
        "Name[de]": "Arbeitsflächen-Umschalter (Raster)",
        "Name[en_GB]": "Desktop Grid",
        "Name[es]": "Rejilla del escritorio",
        "Name[et]": "Töölauavõrgustik",
        "Name[eu]": "Mahaigain sareta",
        "Name[fi]": "Työpöydän ruudukko",
        "Name[fr]": "Grille de bureaux",
        "Name[hu]": "Asztalrács",
        "Name[ia]": "Grillia de scriptorio",
        "Name[id]": "Kisi Desktop",
        "Name[it]": "Griglia dei Desktop",
        "Name[ja]": "デスクトップグリッド",
        "Name[ka]": "სამუშაო მაგიდის ბადე",
        "Name[ko]": "바탕 화면 격자",
        "Name[nl]": "Bureaubladraster",
        "Name[nn]": "Skrivebordsoversikt",
        "Name[pl]": "Siatka pulpitu",
        "Name[pt]": "Grelha de Ecrãs",
        "Name[pt_BR]": "Grade de áreas de trabalho",
        "Name[ro]": "Grilă de birou",
        "Name[ru]": "Все рабочие столы",
        "Name[sk]": "Plochy v mriežke",
        "Name[sl]": "Mreža namizja",
        "Name[sv]": "Skrivbordsrutnät",
        "Name[ta]": "பணிமேடை கிரிட்",
        "Name[tr]": "Masaüstü Izgarası",
        "Name[uk]": "Таблиця стільниць",
        "Name[vi]": "Lưới bàn làm việc",
        "Name[x-test]": "xxDesktop Gridxx",
        "Name[zh_CN]": "虚拟桌面平铺网格",
        "Name[zh_TW]": "桌面格線"
    },
    "X-KDE-ConfigModule": "kwin_desktopgrid_config",
    "X-KWin-Border-Activate": true,
    "org.kde.kwin.effect": {
        "video": "https://files.kde.org/plasma/kwin/effect-videos/desktop_grid.mp4"
    }
}
